"id","fldno","appcol","coltype","appmethodname","inputdatatype","typing","inputform","autoset","other","flguse","onlyinput","ctlname","valname","maxlengthcheck","maxvaluecheck","dsc1","dsc2","dsc3"
"0","1","aid","int","Aid","int","","","True","","","","","","","","プライマリーキー","",""
"1","2","scanid","int","ScanID","int","","","True","","","","","","","","スキャンID","",""
"2","3","groupid","int","GroupID","int","","","True","","","","","","","","グループID","",""
"3","4","ayear","int","MediYear","int","True","True","","","True","","verifyBoxY","ayear","","","診療和暦年","",""
"4","5","amonth","int","MediMonth","int","True","True","","","True","","verifyBoxM","amonth","","1-12","診療和暦月","",""
"5","6","inum","varchar","InsNum","string","True","True","","","","","verifyBoxInum","inum","10","","保険者番号","",""
"6","7","hnum","varchar","HihoNum","string","True","True","","","True","","verifyBoxHnum","hnum","12","","被保険者番号","",""
"7","7","hnum","varchar","HihoNum","string","True","True","","","True","hmark","verifyBoxHMark","hmark","10","","被保険者記号","",""
"8","8","hpref","int","HihoPref","string","True","True","","","","","","hpref","2","","都道府県","",""
"9","9","htype","int","HihoType","","True","True","True","","","","","htype","","","被保険者拡張情報","","保険者によって内容はまちまち"
"10","10","hname","varchar","HihoName","string","True","True","","","","","verifyBoxHname","hname","","","被保険者名","",""
"11","11","hzip","varchar","HihoZip","string","True","True","","","","","verifyBoxHzip","hzip","7","","被保険者郵便番号","",""
"12","12","haddress","varchar","HihoAdd","string","True","True","","","","","verifyBoxHaddress","haddress","","","被保険者住所","",""
"13","13","pname","varchar","PersonName","string","True","True","","","True","","verifyBoxPname","pname","64","","受療者名","",""
"14","14","psex","int","Sex","int","True","True","","","True","","verifyBoxPsex","psex","1","1|2","受療者性別","",""
"16","15","pbirthday","date","Birthday","int","True","True","","","True","","verifyBoxBirthE","0","","1-5","受療者生年月日","年号",""
"17","15","pbirthday","date","Birthday","int","True","True","","","True","","verifyBoxBirthY","0","","1-64","受療者生年月日","和暦年",""
"18","15","pbirthday","date","Birthday","int","True","True","","","True","","verifyBoxBirthM","0","","1-12","受療者生年月日","月",""
"19","15","pbirthday","date","Birthday","int","True","True","","","True","","verifyBoxBirthD","0","","1-31","受療者生年月日","日",""
"20","16","asingle","int","intSingle","int","True","True","","","","","","asingle","","","単独併用区分","","未使用！"
"21","17","afamily","int","Family","int","True","True","","","True","","verifyBoxFamily","afamily","","0|2|4|6|8","家族区分","","保険者によって内容はまちまち"
"22","17","afamily","int","Family","int","","","","","","honke","verifyBoxHonke","honke","","2|6","本人家族","",""
"23","18","aratio","int","Ratio","int","True","True","","","True","","verifyBoxRatio","aratio","","7-10","給付割合","",""
"24","19","publcexpense","varchar","PublcExpense","string","True","True","","","","","","publcexpense","","","公費番号","",""
"25","20","emptytext1","varchar","","string","","","","True","","","","emptytext1","","","予備1","","未使用！"
"26","21","acheckflag","int","","int","","","","True","","","","acheckflag","","","チェック済みフラグ管理","","未使用！"
"27","22","emptytext2","varchar","","string","","","","True","","","","emptytext2","","","予備2","","未使用！"
"28","23","ainspectdate","date","","string","","","","True","","","","ainspectdate","","","チェック日付","","未使用！"
"29","24","ascore","int","","string","","","","True","","","","ascore","","","点数","","未使用！　システム内で別目的で使用"
"30","25","ainquiry","int","","","","","","True","","","","ainquiry","","","点検結果コード","","未使用！"
"31","26","aimagefile","varchar","stringImageFile","string","","","True","","","","","aimagefile","","","画像ファイルパス","",""
"32","27","emptytext3","varchar","","string","","","","True","","","","emptytext3","","","予備3","","未使用！"
"33","28","achargeyear","int","","int","","","True","","","","","achargeyear","","","処理和暦年→請求和暦年？","",""
"34","29","achargemonth","int","","int","","","True","","","","","achargemonth","","","処理和暦月→請求和暦月？","",""
"35","30","iname1","varchar","FushoName1","string","True","True","","","","F1Name","verifyBoxF1Name","iname1","","","負傷1負傷名","",""
"37","31","idate1","date","FushoDate1","int","True","True","","","","F1fsE","verifyBoxF1fsE","F1fsE","","1-5","負傷年月日1","年号",""
"38","31","idate1","date","FushoDate1","int","True","True","","","","F1fsY","verifyBoxF1fsY","F1fsY","","1-64","負傷年月日1","和暦年",""
"39","31","idate1","date","FushoDate1","int","True","True","","","","F1fsM","verifyBoxF1fsM","F1fsM","","1-12","負傷年月日1","月",""
"40","31","idate1","date","FushoDate1","int","True","True","","","","F1fsD","verifyBoxF1fsD","F1fsD","","1-31","負傷年月日1","日",""
"42","32","ifirstdate1","date","FushoFirstDate1","int","True","True","","","","F1FirstE","verifyBoxF1FirstE","F1FirstE","","1-5","初検日1","年号",""
"43","32","ifirstdate1","date","FushoFirstDate1","int","True","True","","","","F1FirstY","verifyBoxF1FirstY","F1FirstY","","1-64","初検日1","和暦年",""
"44","32","ifirstdate1","date","FushoFirstDate1","int","True","True","","","","F1FirstM","verifyBoxF1FirstM","F1FirstM","","1-12","初検日1","月",""
"45","32","ifirstdate1","date","FushoFirstDate1","int","True","True","","","","F1FirstD","verifyBoxF1FirstD","F1FirstD","","1-31","初検日1","日",""
"46","33","istartdate1","date","FushoStartDate1","int","True","True","","","","F1StartE","verifyBoxF1StartE","F1FirstStE","","1-5","施術開始日1","年号",""
"47","33","istartdate1","date","FushoStartDate1","int","True","True","","","","F1StartY","verifyBoxF1StartY","F1FirstStY","","1-64","施術開始日1","和暦年",""
"48","33","istartdate1","date","FushoStartDate1","int","True","True","","","","F1StartM","verifyBoxF1StartM","F1FirstStM","","1-12","施術開始日1","月",""
"49","33","istartdate1","date","FushoStartDate1","int","True","True","","","","F1StartD","verifyBoxF1StartD","F1FirstStD","","1-31","施術開始日1","日",""
"50","34","ifinishdate1","date","FushoFinishDate1","int","True","True","","","","F1FinishE","verifyBoxF1FinishE","F1FirstEdE","","1-5","施術終了日1","年号",""
"51","34","ifinishdate1","date","FushoFinishDate1","int","True","True","","","","F1FinishY","verifyBoxF1FinishY","F1FirstEdY","","1-64","施術終了日1","和暦年",""
"52","34","ifinishdate1","date","FushoFinishDate1","int","True","True","","","","F1FinishM","verifyBoxF1FinishM","F1FirstEdM","","1-12","施術終了日1","月",""
"53","34","ifinishdate1","date","FushoFinishDate1","int","True","True","","","","F1FinishD","verifyBoxF1FinishD","F1FirstEdD","","1-31","施術終了日1","日",""
"54","35","idays1","int","FushoDays1","int","True","True","","","","F1Days","verifyBoxF1Days","idays1","","1-31","日数1","",""
"55","36","icourse1","int","FushoCourse1","int","True","True","","","","F1Tenki","verifyBoxF1Tenki","icourse1","","1-4","転帰1","",""
"56","37","ifee1","int","","int","True","True","","True","","F1Fee","verifyBoxF1Fee","ifee1","10","","金額1","","未使用！"
"57","38","iname2","varchar","FushoName2","string","True","True","","","","F2Name","verifyBoxF2Name","iname2","","","負傷2負傷名","",""
"58","39","idate2","date","FushoDate2","int","True","True","","","","F2fsE","verifyBoxF2fsE","F2fsE","","1-5","負傷年月日2","年号",""
"59","39","idate2","date","FushoDate2","int","True","True","","","","F2fsY","verifyBoxF2fsY","F2fsY","","1-64","負傷年月日2","和暦年",""
"60","39","idate2","date","FushoDate2","int","True","True","","","","F2fsM","verifyBoxF2fsM","F2fsM","","1-12","負傷年月日2","月",""
"61","39","idate2","date","FushoDate2","int","True","True","","","","F2fsD","verifyBoxF2fsD","F2fsD","","1-31","負傷年月日2","日",""
"62","40","ifirstdate2","date","FushoFirstDate2","int","True","True","","","","F2FirstE","verifyBoxF2FirstE","F2FirstE","","1-5","初検日2","年号",""
"63","40","ifirstdate2","date","FushoFirstDate2","int","True","True","","","","F2FirstY","verifyBoxF2FirstY","F2FirstY","","1-64","初検日2","和暦年",""
"64","40","ifirstdate2","date","FushoFirstDate2","int","True","True","","","","F2FirstM","verifyBoxF2FirstM","F2FirstM","","1-12","初検日2","月",""
"65","40","ifirstdate2","date","FushoFirstDate2","int","True","True","","","","F2FirstD","verifyBoxF2FirstD","F2FirstD","","1-31","初検日2","日",""
"66","41","istartdate2","date","FushoStartDate2","int","True","True","","","","F2StartE","verifyBoxF2StartE","F2FirstStE","","1-5","施術開始日2","年号",""
"67","41","istartdate2","date","FushoStartDate2","int","True","True","","","","F2StartY","verifyBoxF2StartY","F2FirstStY","","1-64","施術開始日2","和暦年",""
"68","41","istartdate2","date","FushoStartDate2","int","True","True","","","","F2StartM","verifyBoxF2StartM","F2FirstStM","","1-12","施術開始日2","月",""
"69","41","istartdate2","date","FushoStartDate2","int","True","True","","","","F2StartD","verifyBoxF2StartD","F2FirstStD","","1-31","施術開始日2","日",""
"70","42","ifinishdate2","date","FushoFinishDate2","int","True","True","","","","F2FinishE","verifyBoxF2FinishE","F2FirstEdE","","1-5","施術終了日2","年号",""
"71","42","ifinishdate2","date","FushoFinishDate2","int","True","True","","","","F2FinishY","verifyBoxF2FinishY","F2FirstEdY","","1-64","施術終了日2","和暦年",""
"72","42","ifinishdate2","date","FushoFinishDate2","int","True","True","","","","F2FinishM","verifyBoxF2FinishM","F2FirstEdM","","1-12","施術終了日2","月",""
"73","42","ifinishdate2","date","FushoFinishDate2","int","True","True","","","","F2FinishD","verifyBoxF2FinishD","F2FirstEdD","","1-31","施術終了日2","日",""
"74","43","idays2","int","FushoDays2","int","True","True","","","","F2Days","verifyBoxF2Days","idays2","","1-31","日数2","",""
"75","44","icourse2","int","FushoCourse2","int","True","True","","","","F2Tenki","verifyBoxF2Tenki","icourse2","","1-4","転帰2","",""
"76","45","ifee2","int","","int","True","True","","True","","F2Fee","verifyBoxF2Fee","ifee2","10","","金額2","","未使用！"
"77","46","iname3","varchar","FushoName3","string","True","True","","","","F3Name","verifyBoxF3Name","iname3","","","負傷3負傷名","",""
"78","47","idate3","date","FushoDate3","int","True","True","","","","F3fsE","verifyBoxF3fsE","F3fsE","","1-5","負傷年月日3","年号",""
"79","47","idate3","date","FushoDate3","int","True","True","","","","F3fsY","verifyBoxF3fsY","F3fsY","","1-64","負傷年月日3","和暦年",""
"80","47","idate3","date","FushoDate3","int","True","True","","","","F3fsM","verifyBoxF3fsM","F3fsM","","1-12","負傷年月日3","月",""
"81","47","idate3","date","FushoDate3","int","True","True","","","","F3fsD","verifyBoxF3fsD","F3fsD","","1-31","負傷年月日3","日",""
"82","48","ifirstdate3","date","FushoFirstDate3","int","True","True","","","","F3FirstE","verifyBoxF3FirstE","F3FirstE","","1-5","初検日3","年号",""
"83","48","ifirstdate3","date","FushoFirstDate3","int","True","True","","","","F3FirstY","verifyBoxF3FirstY","F3FirstY","","1-64","初検日3","和暦年",""
"84","48","ifirstdate3","date","FushoFirstDate3","int","True","True","","","","F3FirstM","verifyBoxF3FirstM","F3FirstM","","1-12","初検日3","月",""
"85","48","ifirstdate3","date","FushoFirstDate3","int","True","True","","","","F3FirstD","verifyBoxF3FirstD","F3FirstD","","1-31","初検日3","日",""
"86","49","istartdate3","date","FushoStartDate3","int","True","True","","","","F3StartE","verifyBoxF3StartE","F3FirstStE","","1-5","施術開始日3","年号",""
"87","49","istartdate3","date","FushoStartDate3","int","True","True","","","","F3StartY","verifyBoxF3StartY","F3FirstStY","","1-64","施術開始日3","和暦年",""
"88","49","istartdate3","date","FushoStartDate3","int","True","True","","","","F3StartM","verifyBoxF3StartM","F3FirstStM","","1-12","施術開始日3","月",""
"89","49","istartdate3","date","FushoStartDate3","int","True","True","","","","F3StartD","verifyBoxF3StartD","F3FirstStD","","1-31","施術開始日3","日",""
"90","50","ifinishdate3","date","FushoFinishDate3","int","True","True","","","","F3FinishE","verifyBoxF3FinishE","F3FirstEdE","","1-5","施術終了日3","年号",""
"91","50","ifinishdate3","date","FushoFinishDate3","int","True","True","","","","F3FinishY","verifyBoxF3FinishY","F3FirstEdY","","1-64","施術終了日3","和暦年",""
"92","50","ifinishdate3","date","FushoFinishDate3","int","True","True","","","","F3FinishM","verifyBoxF3FinishM","F3FirstEdM","","1-12","施術終了日3","月",""
"93","50","ifinishdate3","date","FushoFinishDate3","int","True","True","","","","F3FinishD","verifyBoxF3FinishD","F3FirstEdD","","1-31","施術終了日3","日",""
"94","51","idays3","int","FushoDays3","int","True","True","","","","F3Days","verifyBoxF3Days","idays3","","1-31","日数3","",""
"95","52","icourse3","int","FushoCourse3","int","True","True","","","","F3Tenki","verifyBoxF3Tenki","icourse3","","1-4","転帰3","",""
"96","53","ifee3","int","","int","True","True","","True","","F3Fee","verifyBoxF3Fee","ifee3","10","","金額3","","未使用！"
"97","54","iname4","varchar","FushoName4","string","True","True","","","","F4Name","verifyBoxF4Name","iname4","","","負傷4負傷名","",""
"98","55","idate4","date","FushoDate4","int","True","True","","","","F4fsE","verifyBoxF4fsE","F4fsE","","1-5","負傷年月日4","年号",""
"99","55","idate4","date","FushoDate4","int","True","True","","","","F4fsY","verifyBoxF4fsY","F4fsY","","1-64","負傷年月日4","和暦年",""
"100","55","idate4","date","FushoDate4","int","True","True","","","","F4fsM","verifyBoxF4fsM","F4fsM","","1-12","負傷年月日4","月",""
"101","55","idate4","date","FushoDate4","int","True","True","","","","F4fsD","verifyBoxF4fsD","F4fsD","","1-31","負傷年月日4","日",""
"102","56","ifirstdate4","date","FushoFirstDate4","int","True","True","","","","F4FirstE","verifyBoxF4FirstE","F4FirstE","","1-5","初検日4","年号",""
"103","56","ifirstdate4","date","FushoFirstDate4","int","True","True","","","","F4FirstY","verifyBoxF4FirstY","F4FirstY","","1-64","初検日4","和暦年",""
"104","56","ifirstdate4","date","FushoFirstDate4","int","True","True","","","","F4FirstM","verifyBoxF4FirstM","F4FirstM","","1-12","初検日4","月",""
"105","56","ifirstdate4","date","FushoFirstDate4","int","True","True","","","","F4FirstD","verifyBoxF4FirstD","F4FirstD","","1-31","初検日4","日",""
"106","57","istartdate4","date","FushoStartDate4","int","True","True","","","","F4StartE","verifyBoxF4StartE","F4FirstStE","","1-5","施術開始日4","年号",""
"107","57","istartdate4","date","FushoStartDate4","int","True","True","","","","F4StartY","verifyBoxF4StartY","F4FirstStY","","1-64","施術開始日4","和暦年",""
"108","57","istartdate4","date","FushoStartDate4","int","True","True","","","","F4StartM","verifyBoxF4StartM","F4FirstStM","","1-12","施術開始日4","月",""
"109","57","istartdate4","date","FushoStartDate4","int","True","True","","","","F4StartD","verifyBoxF4StartD","F4FirstStD","","1-31","施術開始日4","日",""
"110","58","ifinishdate4","date","FushoFinishDate4","int","True","True","","","","F4FinishE","verifyBoxF4FinishE","F4FirstEdE","","1-5","施術終了日4","年号",""
"111","58","ifinishdate4","date","FushoFinishDate4","int","True","True","","","","F4FinishY","verifyBoxF4FinishY","F4FirstEdY","","1-64","施術終了日4","和暦年",""
"112","58","ifinishdate4","date","FushoFinishDate4","int","True","True","","","","F4FinishM","verifyBoxF4FinishM","F4FirstEdM","","1-12","施術終了日4","月",""
"113","58","ifinishdate4","date","FushoFinishDate4","int","True","True","","","","F4FinishD","verifyBoxF4FinishD","F4FirstEdD","","1-31","施術終了日4","日",""
"114","59","idays4","int","FushoDays4","int","True","True","","","","F4Days","verifyBoxF4Days","idays4","","1-31","日数4","",""
"115","60","icourse4","int","FushoCourse4","int","True","True","","","","F4Tenki","verifyBoxF4Tenki","icourse4","","1-4","転帰4","",""
"116","61","ifee4","int","","int","True","True","","True","","F4Fee","verifyBoxF4Fee","ifee4","10","","金額4","","未使用！"
"117","62","iname5","varchar","FushoName5","string","True","True","","","","F5Name","verifyBoxF5Name","iname5","","","負傷5負傷名","",""
"118","63","idate5","date","FushoDate5","int","True","True","","","","F5fsE","verifyBoxF5fsE","F5fsE","","1-5","負傷年月日5","年号",""
"119","63","idate5","date","FushoDate5","int","True","True","","","","F5fsY","verifyBoxF5fsY","F5fsY","","1-64","負傷年月日5","和暦年",""
"120","63","idate5","date","FushoDate5","int","True","True","","","","F5fsM","verifyBoxF5fsM","F5fsM","","1-12","負傷年月日5","月",""
"121","63","idate5","date","FushoDate5","int","True","True","","","","F5fsD","verifyBoxF5fsD","F5fsD","","1-31","負傷年月日5","日",""
"122","64","ifirstdate5","date","FushoFirstDate5","int","True","True","","","","F5FirstE","verifyBoxF5FirstE","F5FirstE","","1-5","初検日5","年号",""
"123","64","ifirstdate5","date","FushoFirstDate5","int","True","True","","","","F5FirstY","verifyBoxF5FirstY","F5FirstY","","1-64","初検日5","和暦年",""
"124","64","ifirstdate5","date","FushoFirstDate5","int","True","True","","","","F5FirstM","verifyBoxF5FirstM","F5FirstM","","1-12","初検日5","月",""
"125","64","ifirstdate5","date","FushoFirstDate5","int","True","True","","","","F5FirstD","verifyBoxF5FirstD","F5FirstD","","1-31","初検日5","日",""
"126","65","istartdate5","date","FushoStartDate5","int","True","True","","","","F5StartE","verifyBoxF5StartE","F5FirstStE","","1-5","施術開始日5","年号",""
"127","65","istartdate5","date","FushoStartDate5","int","True","True","","","","F5StartY","verifyBoxF5StartY","F5FirstStY","","1-64","施術開始日5","和暦年",""
"128","65","istartdate5","date","FushoStartDate5","int","True","True","","","","F5StartM","verifyBoxF5StartM","F5FirstStM","","1-12","施術開始日5","月",""
"129","65","istartdate5","date","FushoStartDate5","int","True","True","","","","F5StartD","verifyBoxF5StartD","F5FirstStD","","1-31","施術開始日5","日",""
"130","66","ifinishdate5","date","FushoFinishDate5","int","True","True","","","","F5FinishE","verifyBoxF5FinishE","F5FirstEdE","","1-5","施術終了日5","年号",""
"131","66","ifinishdate5","date","FushoFinishDate5","int","True","True","","","","F5FinishY","verifyBoxF5FinishY","F5FirstEdY","","1-64","施術終了日5","和暦年",""
"132","66","ifinishdate5","date","FushoFinishDate5","int","True","True","","","","F5FinishM","verifyBoxF5FinishM","F5FirstEdM","","1-12","施術終了日5","月",""
"133","66","ifinishdate5","date","FushoFinishDate5","int","True","True","","","","F5FinishD","verifyBoxF5FinishD","F5FirstEdD","","1-31","施術終了日5","日",""
"134","67","idays5","int","FushoDays5","int","True","True","","","","F5Days","verifyBoxF5Days","idays5","","1-31","日数5","",""
"135","68","icourse5","int","FushoCourse5","int","True","True","","","","F5Tenki","verifyBoxF5Tenki","icourse5","","1-4","転帰5","",""
"136","69","ifee5","int","","int","True","True","","True","","F5Fee","verifyBoxF5Fee","ifee5","10","","金額5","","未使用！"
"137","70","fchargetype","int","NewContType","int","","","True","","","","","fchargetype","1","","新規継続","","診療年月＝初診年月の場合新規"
"138","71","fdistance","int","Distance","int","True","True","","","","","verifyBoxVisit1Dis","fdistance","4","","往療距離","","往療あり=999"
"139","72","fvisittimes","int","VisitTimes","int","True","True","","","","","verifyBoxVisit1Count","fvisittimes","1","","往療回数","",""
"140","73","fvisitfee","int","VisitFee","int","True","True","","","","","verifyBoxVisit1Cost","fvisitfee","","","往療料","",""
"141","74","fvisitadd","int","VisitAdd","bool","True","True","","","","","","fvisitadd","","","往療料加算","",""
"142","75","fmetal","int","","","","","","True","","","","fmetal","","","","","未使用！テーブルに存在しない場合がある"
"143","76","finfo","int","","","","","","True","","","","finfo","","","","","未使用！テーブルに存在しない場合がある"
"144","77","fsubtotal","int","","","","","","True","","","","fsubtotal","","","","","未使用！テーブルに存在しない場合がある"
"145","78","sid","varchar","ClinicNum","string","True","True","","","","","verifyBoxClinicNum","sid","12","","医療機関番号","","施術所番号と混同している場合あり"
"146","79","sregnumber","varchar","DrNum","string","True","True","","","","","verifyBoxDrNum","sregnumber","10","","施術師番号","","施術所番号と混同している場合あり"
"147","80","szip","varchar","ClinicZip","string","True","True","","","","","verifyBoxClinicZip","szip","7","","施術所郵便番号","",""
"148","81","saddress","varchar","ClinicAdd","string","True","True","","","","","verifyBoxClinicAdd","saddress","","","施術所住所","",""
"149","82","sname","varchar","ClinicName","string","True","True","","","","","verifyBoxClinicName","sname","","","施術所名","",""
"150","83","stel","varchar","ClinicTel","string","True","True","","","","","verifyBoxClinicTel","stel","13","","施術所電話番号","",""
"151","84","sdoctor","varchar","DrName","string","True","True","","","","","verifyBoxDrName","sdoctor","","","施術師名","",""
"152","85","skana","varchar","DrKana","string","True","True","","","","","verifyBoxDrKana","skana","","","施術師カナ","",""
"153","86","sentrust","int","","","","","","True","","","","sentrust","","","","","未使用！テーブルに存在しない場合がある"
"154","87","bpaydiv","int","","","","","","True","","","","bpaydiv","","","","","未使用！テーブルに存在しない場合がある"
"155","88","bacctype","int","AccountType","int","True","True","","","","","verifyBoxAccType","bacctype","10","","口座種別","","普通/当座/等"
"156","89","bname","varchar","BankName","string","True","True","","","","","verifyBoxBank","bname","","","銀行名","",""
"157","90","btype","int","BankType","string","True","True","","","","","verifyBoxBankType","btype","","","銀行種別","","銀行/信用金庫/ゆうちょ/等"
"158","91","bbranch","varchar","BankBranch","string","True","True","","","","","verifyBoxBankBlanchName","bbranch","","","支店名","",""
"159","92","bbranchtype","int","BankBranchType","int","True","True","","","","","verifyBoxBankBlanchType","bbranchtype","","","支店種別","","？"
"160","93","baccname","varchar","AccountName","string","True","True","","","","","verifyBoxAccName","baccname","","","口座名義","",""
"161","94","bkana","varchar","AccountKana","string","True","True","","","","","verifyBoxAccKana","bkana","","","口座名義カナ","",""
"162","95","baccnumber","varchar","AccountNumber","string","True","True","","","","","verifyBoxAccNum","baccnumber","10","","口座番号","",""
"163","96","atotal","int","Total","int","True","True","","","","","verifyBoxTotal","atotal","10","","合計額","",""
"164","97","apartial","int","Partial","int","True","True","","","","","verifyBoxPartial","apartial","10","","一部負担額","",""
"165","98","acharge","int","Charge","int","True","True","","","","","verifyBoxCharge","acharge","10","","請求額","",""
"166","99","acounteddays","int","CountedDays","int","True","True","","","","","verifyBoxCountedDays","acounteddays","","","実日数","",""
"167","100","numbering","varchar","Numbering","string","True","True","True","","","","verifyBoxNumbering","numbering","","","ナンバリング","","保険者によって入力、自動が異なる"
"168","101","aapptype","int","AppType","int","","","True","","","","verifyBoxAppType","aapptype","","","申請書種別","","柔整=6鍼灸=7あんま=8"
"169","102","aall","varchar[]","","","","","","True","","","","aall","","","","","未使用！テーブルに存在しない場合がある"
"170","103","anote","varchar","","","True","True","","","","","","anote","","","ノート","","システム管理追加情報"
"171","104","ufirst","int","","","","","True","","","","","ufirst","","","1回目入力ユーザーID","",""
"172","105","usecond","int","","","","","True","","","","","usecond","","","2回目入力ユーザーID","",""
"173","106","uinquiry","int","","","","","True","","","","","uinquiry","","","点検ユーザーID","",""
"174","107","bui","int","","","True","True","","","","","verifyBoxBui","bui","","","あんま部位","","10進数でフラグ管理"
"175","108","cym","int","CYM","int","","","True","","","","","cym","","","処理西暦年月","","yyyyMM (201708)"
"176","109","ym","int","YM","int","","","True","","","","","ym","","","診療西暦年月","","yyyyMM (201707)、項目3、4から計算されることが多い"
"177","110","statusflags","int","","","","","True","","","","","statusflags","","","ステータスフラグ","","ビットフラグ　定義はソース上"
"178","111","shokaireason","int","","","True","","","","","","","shokaireason","","","照会理由","","ビットフラグ"
"179","112","rrid","int","RrID","int","True","","","","","","","rrid","","","関連レセ情報ID","",""
"180","113","inspectreasons","int","","","True","","","","","","","inspectreasons","","","点検理由","","ビットフラグ　点検結果も併用"
"181","114","additionaluid1","int","","","True","","","","","","","additionaluid1","","","1回目追加入力ユーザーID","",""
"182","115","additionaluid2","int","","","True","","","","","","","additionaluid2","","","2回目追加入力ユーザーID","",""
"183","116","memo_shokai","varchar","","","True","","","","","","","memo_shokai","","","照会メモ","",""
"184","117","memo_inspect","varchar","","","True","","","","","","","memo_inspect","","","点検メモ","",""
"185","118","memo","varchar","","","True","","","","","","","memo","","","メモ","","現在未使用　近々anoteより一部転記予定"
"186","119","paycode","varchar","PayCode","string","True","True","","","","","verifyBoxPayCode","paycode","","","支払先コード","",""
"187","120","shokaicode","varchar","ShokaiCode","string","True","True","","","","","","shokaicode","","","照会文書通知コード","",""
"188","121","ocrdata","varchar","OcrData","string","","","True","","","","","ocrdata","","","OCR結果","","カンマ区切りテキスト"
"189","122","ufirstex","int","","","","","True","","","","","ufirstex","","","1回目拡張入力ユーザーID","",""
"190","123","usecondex","int","","","","","True","","","","","usecondex","","","2回目拡張入力ユーザーID","",""
"191","124","kagoreasons","int","","","True","","","","","","","kagoreasons","","","過誤理由","","定義はソース上に定義されている"
"192","125","saishinsareasons","int","","","True","","","","","","","saishinsareasons","","","再審理由","","定義はソース上に定義されている"
"193","126","henreireasons","int","","","True","","","","","","","henreireasons","","","返戻理由","","定義はソース上に定義されている"
"194","127","taggeddatas","varchar","","","True","True","True","","","","","taggeddatas","","","タグ化されたデータ","","定義はソース上に定義されている"
"195","127","taggeddatas","varchar","TaggedDatas.DouiDate","","","","","","","DouiY","verifyBoxDouiY","DouiY","","1-64","同意年月日","和暦年",""
"196","127","taggeddatas","varchar","TaggedDatas.DouiDate","","","","","","","DouiM","verifyBoxDouiM","DouiM","","1-12","同意年月日","月",""
"197","127","taggeddatas","varchar","TaggedDatas.DouiDate","","","","","","","DouiG","verifyBoxDouiG","DouiG","","1-5","同意年月日","年号",""
"198","127","taggeddatas","varchar","TaggedDatas.DouiDate","","","","","","","DouiD","verifyBoxDouiD","DouiD","","1-31","同意年月日","日",""
"199","127","taggeddatas","varchar","TaggedDatas.PastSupplyYM","","","","","","","PastY","verifyBoxPastY","PastY","","1-64","前回支給年月","和暦年",""
"200","127","taggeddatas","varchar","TaggedDatas.PastSupplyYM","","","","","","","PastM","verifyBoxPastM","PastM","","1-12","前回支給年月","月",""
"201","127","taggeddatas","varchar","TaggedDatas.PastSupplyYM","","","","","","","PastG","verifyBoxPastG","PastG","","1-5","前回支給年月","年号",""
"202","128","comnum","varchar","ComNum","string","","","True","","","","","comnum","","","電算管理番号","","電算管理番号と独自番号があるとき、電算管理番号をこちらに登録"
"203","129","groupnum","varchar","","","","","True","","","","","groupnum","","","グループ","",""
"204","130","outmemo","varchar","","","True","","","","","","","outmemo","","","出力メモ","","社外向けのコメントを入力"
"205","131","kagoreasons_xml","xml","kagoreasons_xml","stirng","","","True","","","","","kagoreasons_xml","","","過誤理由","","従来のフィールドでは限度があるのでxmlに変更"
"","","","","","","","","","","","","","","","","","",""
